ply
format ascii 1.0
comment VCGLIB generated
element vertex 45
property float x
property float y
property float z
property float nx
property float ny
property float nz
element face 64
property list uchar int vertex_indices
end_header
-0.73639 -0 1.47278 0 1.5708 0 
-0.3682 -0 1.47278 0 3.14159 0 
-0.3682 -0 1.10459 0 6.28319 0 
-0.73639 -0 1.10459 0 3.14159 0 
0 -0 1.47278 0 3.14159 0 
0 -0 1.10459 0 6.28319 0 
0.3682 -0 1.47278 0 3.14159 0 
0.3682 -0 1.10459 0 6.28319 0 
0.73639 -0 1.47278 0 1.5708 0 
0.73639 -0 1.10459 0 3.14159 0 
-0.3682 -0 0.73639 0 6.28319 0 
-0.73639 -0 0.73639 0 3.14159 0 
0 -0 0.73639 0 6.28319 0 
0.3682 -0 0.73639 0 6.28319 0 
0.73639 -0 0.73639 0 3.14159 0 
-0.3682 -0 0.3682 0 6.28319 0 
-0.73639 -0 0.3682 0 3.14159 0 
0 -0 0.3682 0 6.28319 0 
0.3682 -0 0.3682 0 6.28319 0 
0.73639 -0 0.3682 0 3.14159 0 
-0.3682 -0 0 0 6.28319 0 
-0.73639 -0 0 0 3.14159 0 
0 -0 0 0 6.28319 0 
0.3682 -0 0 0 6.28319 0 
0.73639 -0 0 0 3.14159 0 
-0.3682 -0 -0.3682 0 6.28319 0 
-0.73639 -0 -0.3682 0 3.14159 0 
0 -0 -0.3682 0 6.28319 0 
0.3682 -0 -0.3682 0 6.28319 0 
0.73639 -0 -0.3682 0 3.14159 0 
-0.3682 -0 -0.73639 0 6.28319 0 
-0.73639 -0 -0.73639 0 3.14159 0 
0 -0 -0.73639 0 6.28319 0 
0.3682 -0 -0.73639 0 6.28319 0 
0.73639 -0 -0.73639 0 3.14159 0 
-0.3682 -0 -1.10459 0 6.28319 0 
-0.73639 -0 -1.10459 0 3.14159 0 
0 -0 -1.10459 0 6.28319 0 
0.3682 -0 -1.10459 0 6.28319 0 
0.73639 -0 -1.10459 0 3.14159 0 
-0.3682 -0 -1.47278 0 3.14159 0 
-0.73639 -0 -1.47278 0 1.5708 0 
0 -0 -1.47278 0 3.14159 0 
0.3682 -0 -1.47278 0 3.14159 0 
0.73639 -0 -1.47278 0 1.5708 0 
3 0 1 2 
3 2 3 0 
3 1 4 5 
3 5 2 1 
3 4 6 7 
3 7 5 4 
3 6 8 9 
3 9 7 6 
3 3 2 10 
3 10 11 3 
3 2 5 12 
3 12 10 2 
3 5 7 13 
3 13 12 5 
3 7 9 14 
3 14 13 7 
3 11 10 15 
3 15 16 11 
3 10 12 17 
3 17 15 10 
3 12 13 18 
3 18 17 12 
3 13 14 19 
3 19 18 13 
3 16 15 20 
3 20 21 16 
3 15 17 22 
3 22 20 15 
3 17 18 23 
3 23 22 17 
3 18 19 24 
3 24 23 18 
3 21 20 25 
3 25 26 21 
3 20 22 27 
3 27 25 20 
3 22 23 28 
3 28 27 22 
3 23 24 29 
3 29 28 23 
3 26 25 30 
3 30 31 26 
3 25 27 32 
3 32 30 25 
3 27 28 33 
3 33 32 27 
3 28 29 34 
3 34 33 28 
3 31 30 35 
3 35 36 31 
3 30 32 37 
3 37 35 30 
3 32 33 38 
3 38 37 32 
3 33 34 39 
3 39 38 33 
3 36 35 40 
3 40 41 36 
3 35 37 42 
3 42 40 35 
3 37 38 43 
3 43 42 37 
3 38 39 44 
3 44 43 38 
